name: Orders
description: 'APIs for order management'
endpoints:
  -
    custom: []
    httpMethods:
      - GET
    uri: api/v1/orders/statuses
    metadata:
      custom: []
      groupName: Orders
      groupDescription: 'APIs for order management'
      subgroup: ''
      subgroupDescription: ''
      title: 'Get order statuses'
      description: 'Returns a list of all available order statuses with their IDs and titles.'
      authenticated: false
      deprecated: false
    headers:
      Content-Type: application/json
      Accept: application/json
    urlParameters: []
    cleanUrlParameters: []
    queryParameters: []
    cleanQueryParameters: []
    bodyParameters: []
    cleanBodyParameters: []
    fileParameters: []
    responses:
      -
        custom: []
        status: 200
        content: |-
          [
            {
              "id": 1,
              "title": "Pending"
            },
            {
              "id": 2,
              "title": "Paid"
            }
          ]
        headers: []
        description: ''
    responseFields: []
    auth: []
    controller: null
    method: null
    route: null
  -
    custom: []
    httpMethods:
      - GET
    uri: api/v1/orders
    metadata:
      custom: []
      groupName: Orders
      groupDescription: 'APIs for order management'
      subgroup: ''
      subgroupDescription: ''
      title: 'List orders'
      description: 'Retrieves a paginated list of orders for the authenticated user with optional status filtering.'
      authenticated: true
      deprecated: false
    headers:
      Authorization: 'Bearer {YOUR_AUTH_KEY}'
      Content-Type: application/json
      Accept: application/json
    urlParameters: []
    cleanUrlParameters: []
    queryParameters:
      statuses:
        custom: []
        name: statuses
        description: 'Filter by order status IDs. Get available statuses from /v1/orders/statuses endpoint.'
        required: false
        example:
          - 1
          - 2
          - 3
        type: 'integer[]'
        enumValues: []
        exampleWasSpecified: true
        nullable: false
        deprecated: false
      per_page:
        custom: []
        name: per_page
        description: 'Number of items per page (1-100). Defaults to 15.'
        required: false
        example: 20
        type: integer
        enumValues: []
        exampleWasSpecified: true
        nullable: false
        deprecated: false
      page:
        custom: []
        name: page
        description: 'Page number for pagination.'
        required: false
        example: 1
        type: integer
        enumValues: []
        exampleWasSpecified: true
        nullable: false
        deprecated: false
    cleanQueryParameters:
      statuses:
        - 1
        - 2
        - 3
      per_page: 20
      page: 1
    bodyParameters: []
    cleanBodyParameters: []
    fileParameters: []
    responses:
      -
        custom: []
        status: 200
        content: |
          {
            "data": [
              {
                "id": 1001,
                "number": "ORD-2024-001001",
                "status": "shipped",
                "currency": "USD",
                "grand_total_minor": "$125.99",
                "created_at": "2024-01-15T10:30:00+00:00"
              },
              {
                "id": 1000,
                "number": "ORD-2024-001000",
                "status": "completed",
                "currency": "USD",
                "grand_total_minor": "$89.99",
                "created_at": "2024-01-10T08:15:00+00:00"
              }
            ],
            "meta": {
              "pagination": {
                  "current_page": 1,
                  "last_page": 3,
                  "per_page": 15,
                  "total": 42
              }
            }
          }
        headers: []
        description: Success
      -
        custom: []
        status: 401
        content: ''
        headers: []
        description: 'Error: unauthenticated'
    responseFields: []
    auth:
      - headers
      - Authorization
      - 'Bearer 6g43cv8PD1aE5beadkZfhV6'
    controller: null
    method: null
    route: null
  -
    custom: []
    httpMethods:
      - GET
    uri: 'api/v1/orders/{id}'
    metadata:
      custom: []
      groupName: Orders
      groupDescription: 'APIs for order management'
      subgroup: ''
      subgroupDescription: ''
      title: 'Get order details'
      description: 'Retrieves detailed information about a specific order for the authenticated user.'
      authenticated: true
      deprecated: false
    headers:
      Authorization: 'Bearer {YOUR_AUTH_KEY}'
      Content-Type: application/json
      Accept: application/json
    urlParameters:
      id:
        custom: []
        name: id
        description: 'Order ID.'
        required: true
        example: 1001
        type: integer
        enumValues: []
        exampleWasSpecified: true
        nullable: false
        deprecated: false
    cleanUrlParameters:
      id: 1001
    queryParameters: []
    cleanQueryParameters: []
    bodyParameters: []
    cleanBodyParameters: []
    fileParameters: []
    responses:
      -
        custom: []
        status: 200
        content: |
          {
            "data": {
              "id": 1001,
              "number": "ORD-2025-001001",
              "status": "Shipped",
              "currency": "UAH",
              "grand_total_minor": "1,250.00 ₴",
              "created_at": "2025-01-08T14:30:00+00:00",
              "updated_at": "2025-01-09T10:15:00+00:00",
              "lines": [
                {
                  "line_no": 1,
                  "variant_id": 501,
                  "sku": "PROD-001-BLK-L",
                  "qty": 2,
                  "shipped_qty": 2,
                  "unit_price_minor": 49900,
                  "line_total_minor": 99800,
                  "loyalty_discount_minor": 0,
                  "options": []
                },
                {
                  "line_no": 2,
                  "variant_id": 502,
                  "sku": "PROD-002-WHT-M",
                  "qty": 1,
                  "shipped_qty": 1,
                  "unit_price_minor": 29900,
                  "line_total_minor": 29900,
                  "loyalty_discount_minor": 500,
                  "options": [
                    {
                      "option_id": 10,
                      "qty": 1,
                      "pricing_mode": "fixed",
                      "percent": null,
                      "amount": 500,
                      "amount_currency": "UAH",
                      "unit_price_minor": 500,
                      "total_price_minor": 500
                    }
                  ]
                }
              ],
              "totals": {
                "items_total_minor": 129700,
                "discounts_minor": 5000,
                "loyalty_points_minor": 500,
                "shipping_minor": 8000,
                "grand_total_minor": 132200
              },
              "promotions": [
                {
                  "code": "WINTER2025",
                  "discount_minor": 5000,
                  "type": "fixed"
                }
              ],
              "shipping": {
                "method_code": "express",
                "provider_code": "novapost",
                "amount_minor": 8000
              },
              "shipments": [
                {
                  "number": "SHP-2025-000123",
                  "provider_code": "novapost",
                  "method_code": "express",
                  "status": "Shipped",
                  "tracking_number": "59000123456789",
                  "tracking_url": "https://tracking.novapost.ua/59000123456789",
                  "shipped_at": "2025-01-09T09:00:00+00:00",
                  "delivered_at": null
                }
              ],
              "shipping_address": {
                "recipient_first_name": "Іван",
                "recipient_last_name": "Петренко",
                "phone": "+380991234567",
                "address_line1": "вул. Хрещатик, 1",
                "address_line2": "кв. 15",
                "city": "Київ",
                "region": "Київська область",
                "postal": "01001",
                "country": "UA"
              },
              "billing_address": {
                "recipient_first_name": "Іван",
                "recipient_last_name": "Петренко",
                "phone": "+380991234567",
                "address_line1": "вул. Хрещатик, 1",
                "address_line2": "кв. 15",
                "city": "Київ",
                "region": "Київська область",
                "postal": "01001",
                "country": "UA"
              },
              "payment_intent": {
                "id": 5001,
                "status": "SUCCEEDED",
                "provider_code": "wayforpay"
              }
            }
          }
        headers: []
        description: Success
      -
        custom: []
        status: 401
        content: ''
        headers: []
        description: 'Error: unauthenticated'
      -
        custom: []
        status: 404
        content: ''
        headers: []
        description: 'Error: not found'
    responseFields: []
    auth:
      - headers
      - Authorization
      - 'Bearer 6g43cv8PD1aE5beadkZfhV6'
    controller: null
    method: null
    route: null
